{
  "type": "object",
  "definitions": {},
  "$schema": "http://json-schema.org/draft-07/schema#",
  "properties": {
    "email": {
      "$id": "/properties/email",
      "type": "string",
      "format": "email",
      "minLength": 1
    },
    "password": {
      "$id": "/properties/password",
      "type": "string"
    }
  },
  "required": [
    "email",
    "password"
  ]
}